<svg width="97" height="91" viewBox="0 0 97 91" fill="none" xmlns="http://www.w3.org/2000/svg">
<path d="M24.8658 0.662692C24.8658 0.662692 24.1186 6.88157 29.9935 9.43196C29.9935 9.43196 22.8556 11.6754 22.6769 16.4965C22.6769 16.4965 23.4186 9.8195 17.855 7.94194C17.855 7.94194 23.3846 7.71607 24.8658 0.662692Z" fill="#FED267"/>
<path d="M6.14532 47.4872C6.14532 47.4872 5.45257 53.3801 9.72791 55.6569C9.72791 55.6569 4.41374 57.9391 4.17359 62.4974C4.17359 62.4974 4.87172 56.1718 0.810182 54.5236C0.809051 54.5235 4.89337 54.1853 6.14532 47.4872Z" fill="#FED267"/>
<path d="M90.9625 20.5639C90.9625 20.5639 90.219 26.8351 95.1841 29.3023C95.1841 29.3023 89.0611 31.6809 88.8291 36.5352C88.8291 36.5352 89.5747 29.8035 84.8627 28.0021C84.8621 28.0077 89.5803 27.6865 90.9625 20.5639Z" fill="#FFC606"/>
<path d="M72.9769 79.4555C69.739 82.047 66.0564 84.0274 62.1092 85.3001V85.3001C60.3001 85.8818 58.4463 86.3139 56.5665 86.592C56.0117 86.6745 55.4588 86.7435 54.9077 86.799C36.7376 88.6201 20.1563 75.8578 17.44 57.6024C17.3163 56.7633 17.2229 55.9282 17.1598 55.097C15.8093 37.2609 28.4588 21.1496 46.4318 18.4762C51.4935 17.7156 56.6613 18.0981 61.5558 19.5955C73.0983 23.1278 82.3336 32.6219 85.0972 44.9899C85.2798 45.8042 85.4331 46.6302 85.5569 47.4679C87.4266 60.0485 82.242 72.0485 72.9769 79.4555Z" fill="#D38D00"/>
<path d="M55.8241 81.6137C54.7004 81.7809 53.5826 81.8924 52.4708 81.9482C35.8038 82.7991 20.8151 71.4658 17.1576 55.1011C16.9763 54.2876 16.8231 53.4612 16.6979 52.6219C13.8991 33.8122 26.8789 16.2944 45.6841 13.4962C49.895 12.8643 54.1867 13.0208 58.3404 13.9577L58.3536 13.9591C60.8662 14.5277 63.3066 15.3782 65.6284 16.4943L65.7129 16.5356C75.6224 21.3252 83.0661 30.7753 84.8107 42.4847C84.9346 43.3224 85.028 44.1572 85.091 44.989C86.4457 62.8279 73.7962 78.9391 55.8241 81.6137Z" fill="#FFC606"/>
<path d="M68.0817 69.0601C79.9595 59.4911 81.8312 42.1051 72.2622 30.2274C62.6932 18.3496 45.3072 16.4779 33.4295 26.0469C21.5517 35.6159 19.68 53.0019 29.249 64.8796C38.818 76.7574 56.204 78.6291 68.0817 69.0601Z" fill="#F5B400"/>
<path d="M45.4679 22.4995C60.5551 20.2554 74.6045 30.6655 76.8488 45.7516C77.666 51.1855 76.8359 56.7396 74.4656 61.6972C77.742 56.2297 79.0164 49.7936 78.0709 43.4902C75.8267 28.404 61.7763 17.9928 46.6901 20.2381C42.6336 20.8376 38.762 22.3348 35.3576 24.6206C31.9532 26.9063 29.1018 29.9231 27.0114 33.4508C29.4014 30.2822 32.4457 27.6654 35.9373 25.7785C38.8856 24.109 42.1165 22.9975 45.4679 22.4995V22.4995Z" fill="#D38D00"/>
<path d="M44.7776 54.616L49.1429 55.0859L45.4344 46.8625C47.8949 46.0308 49.7555 43.8897 50.033 41.3115C50.4367 37.5614 47.7178 34.1865 43.9384 33.7796L35.735 32.8965L33.5273 53.4049L37.5703 53.8401L38.3368 46.7208L41.413 47.0519L44.7776 54.616ZM39.3713 37.1111L43.5315 37.559C45.055 37.723 46.1729 39.177 45.99 40.8763C45.807 42.5756 44.4021 43.7876 42.8787 43.6236L38.7184 43.1758L39.3713 37.1111ZM61.4946 41.1821C59.3558 40.9519 57.7179 41.5757 56.5181 42.8099L56.7042 41.0813L52.9248 40.6745L50.717 61.1828L54.4964 61.5897L55.3133 54.0016C56.2229 55.4628 57.6905 56.421 59.8293 56.6513C63.7552 57.0739 67.3406 54.0516 67.8106 49.6863C68.2805 45.3209 65.4205 41.6047 61.4946 41.1821ZM59.5141 52.972C57.1996 52.7228 55.6508 50.8668 55.9157 48.4057C56.1806 45.9447 58.089 44.4609 60.4035 44.71C62.7473 44.9623 64.2961 46.8184 64.0312 49.2794C63.7662 51.7404 61.8579 53.2243 59.5141 52.972Z" fill="white"/>
</svg>
