<svg width="25" height="19" viewBox="0 0 25 19" fill="none" xmlns="http://www.w3.org/2000/svg">
<path d="M10.8615 9.59688H10.2077V11.3655H9V6.35559H10.9716C11.5657 6.35559 12.0303 6.48749 12.3652 6.75129C12.7001 7.01509 12.8675 7.38785 12.8675 7.86957C12.8675 8.21824 12.7964 8.50728 12.6542 8.73667C12.5143 8.96606 12.2941 9.15186 11.9935 9.29409L13.0396 11.3139V11.3655H11.7458L10.8615 9.59688ZM10.2077 8.66441H10.9716C11.201 8.66441 11.373 8.60477 11.4877 8.48548C11.6047 8.36391 11.6632 8.1953 11.6632 7.97968C11.6632 7.76405 11.6047 7.59545 11.4877 7.47387C11.3708 7.35 11.1987 7.28806 10.9716 7.28806H10.2077V8.66441Z" fill="#1F46A2"/>
<path d="M17 9.5315C17 10.1096 16.8692 10.5718 16.6077 10.9182C16.3485 11.2623 15.9976 11.4343 15.5548 11.4343C15.213 11.4343 14.932 11.3093 14.7118 11.0592V12.7969H13.5523V7.64247H14.6361L14.6705 7.98656C14.893 7.71129 15.1855 7.57366 15.548 7.57366C16.0067 7.57366 16.3634 7.7434 16.6181 8.0829C16.8727 8.42011 17 8.88462 17 9.47645V9.5315ZM15.8404 9.45925C15.8404 8.7986 15.6477 8.46828 15.2624 8.46828C14.9871 8.46828 14.8036 8.56692 14.7118 8.76419V10.23C14.8128 10.4365 14.9986 10.5397 15.2692 10.5397C15.6386 10.5397 15.829 10.2208 15.8404 9.58312V9.45925Z" fill="#1F46A2"/>
<path d="M21.9478 2H4.10722C3.49141 2 2.99219 2.49922 2.99219 3.11504V15.2968C2.99219 15.9126 3.49141 16.4118 4.10722 16.4118H21.9478C22.5636 16.4118 23.0628 15.9126 23.0628 15.2968V3.11504C23.0628 2.49922 22.5636 2 21.9478 2Z" stroke="#234AA4" stroke-width="2.23007" stroke-linecap="round" stroke-linejoin="round"/>
<path d="M23.063 11.5837V15.2968C23.063 15.5925 22.9455 15.8761 22.7364 16.0853C22.5273 16.2944 22.2437 16.4118 21.9479 16.4118H18.2349C18.2349 15.1314 18.7435 13.9033 19.649 12.9979C20.5544 12.0924 21.7825 11.5837 23.063 11.5837V11.5837Z" stroke="#234AA4" stroke-width="2.23007" stroke-linecap="round" stroke-linejoin="round"/>
<path d="M18.2349 2H21.9479C22.2437 2 22.5273 2.11748 22.7364 2.32659C22.9455 2.5357 23.063 2.81931 23.063 3.11504V6.8281C21.7825 6.8281 20.5544 6.31943 19.649 5.41398C18.7435 4.50854 18.2349 3.28049 18.2349 2V2Z" stroke="#234AA4" stroke-width="2.23007" stroke-linecap="round" stroke-linejoin="round"/>
<path d="M7.81494 16.4119H4.10189C3.80616 16.4119 3.52253 16.2944 3.31342 16.0853C3.10431 15.8762 2.98685 15.5926 2.98685 15.2968L2.98685 11.5838C4.26735 11.5838 5.49539 12.0924 6.40083 12.9979C7.30628 13.9033 7.81494 15.1314 7.81494 16.4119Z" stroke="#234AA4" stroke-width="2.23007" stroke-linecap="round" stroke-linejoin="round"/>
<path d="M2.9924 6.82813L2.9924 3.11506C2.9924 2.81933 3.10989 2.53572 3.319 2.32661C3.52811 2.1175 3.81171 2.00002 4.10744 2.00002L7.81494 2.00002C7.81494 3.27955 7.30705 4.50676 6.40281 5.41204C5.49857 6.31733 4.27193 6.82665 2.9924 6.82813V6.82813Z" stroke="#234AA4" stroke-width="2.23007" stroke-linecap="round" stroke-linejoin="round"/>
<g opacity="0.15">
<path opacity="0.15" d="M20.9556 3.09277H3.11504C2.49922 3.09277 2 3.59199 2 4.20781V16.3896C2 17.0054 2.49922 17.5046 3.11504 17.5046H20.9556C21.5714 17.5046 22.0706 17.0054 22.0706 16.3896V4.20781C22.0706 3.59199 21.5714 3.09277 20.9556 3.09277Z" stroke="#234AA4" stroke-width="2.23007" stroke-linecap="round" stroke-linejoin="round"/>
<path opacity="0.15" d="M22.0708 12.6765V16.3896C22.0708 16.6853 21.9533 16.9689 21.7442 17.178C21.5351 17.3871 21.2515 17.5046 20.9557 17.5046H17.2427C17.2427 16.2241 17.7513 14.9961 18.6568 14.0906C19.5622 13.1852 20.7903 12.6765 22.0708 12.6765V12.6765Z" stroke="#234AA4" stroke-width="2.23007" stroke-linecap="round" stroke-linejoin="round"/>
<path opacity="0.15" d="M17.2427 3.11499H20.9557C21.2515 3.11499 21.5351 3.23247 21.7442 3.44158C21.9533 3.65069 22.0708 3.9343 22.0708 4.23003V7.94309C20.7903 7.94309 19.5622 7.43442 18.6568 6.52897C17.7513 5.62353 17.2427 4.39548 17.2427 3.11499V3.11499Z" stroke="#234AA4" stroke-width="2.23007" stroke-linecap="round" stroke-linejoin="round"/>
<path opacity="0.15" d="M6.82812 17.5045H3.11507C2.81935 17.5045 2.53572 17.387 2.32661 17.1779C2.1175 16.9688 2.00004 16.6852 2.00004 16.3895L2.00004 12.6764C3.28053 12.6764 4.50857 13.1851 5.41402 14.0905C6.31946 14.996 6.82812 16.224 6.82812 17.5045Z" stroke="#234AA4" stroke-width="2.23007" stroke-linecap="round" stroke-linejoin="round"/>
<path opacity="0.15" d="M2.00004 7.9209L2.00004 4.20783C2.00004 3.9121 2.1175 3.62849 2.32661 3.41938C2.53572 3.21027 2.81935 3.09279 3.11507 3.09279L6.82812 3.09279C6.82812 4.37329 6.31946 5.60133 5.41402 6.50677C4.50857 7.41222 3.28053 7.9209 2.00004 7.9209V7.9209Z" stroke="#234AA4" stroke-width="2.23007" stroke-linecap="round" stroke-linejoin="round"/>
</g>
</svg>
